Supervised machine learning tutorial
…
gbm_grid <- grid_regular(
  mtry(range = c(5, 15)),#number of predictors sampled at each split of tree
  min_n(range = c(2, 8)),
  tree_depth(range = c(3, 9)),
  levels = 3
)
gbm_grid

# A tibble: 27 × 3
    mtry min_n tree_depth
   <int> <int>      <int>
 1     5     2          3
 2    10     2          3
 3    15     2          3
 4     5     5          3
 5    10     5          3
 6    15     5          3
 7     5     8          3
 8    10     8          3
 9    15     8          3
10     5     2          6
# … with 17 more rows
…
